arrival_date,arrival_date_week_number,season,stays_in_weekend_nights,stays_in_week_nights,nb_persons,SC,BB,HB,FB,breakfast,num_meals,num_meal1,num_meal2,num_meal3,num_meal4
2015-07-01,27,2,2,16,11,0,5,6,0,37.0,12.0,4,5,3,0
2015-07-02,27,2,0,3,1,0,0,1,0,3.0,3.0,0,3,0,0
2015-07-03,27,2,2,13,8,2,0,6,0,12.0,12.0,1,7,0,4
2015-07-04,27,2,8,8,7,0,7,0,0,28.0,0.0,0,0,0,0
2015-07-06,28,2,1,0,2,0,2,0,0,2.0,0.0,0,0,0,0
2015-07-07,28,2,2,10,5,0,5,0,0,26.0,0.0,0,0,0,0
2015-07-08,28,2,2,18,13,0,13,0,0,38.0,0.0,0,0,0,0
2015-07-09,28,2,2,3,2,0,2,0,0,10.0,0.0,0,0,0,0
2015-07-10,28,2,4,5,6,0,4,2,0,28.0,8.0,2,4,1,1
2015-07-11,28,2,12,9,18,1,9,8,0,41.0,24.0,3,8,6,7
2015-07-13,29,2,1,0,2,0,2,0,0,2.0,0.0,0,0,0,0
2015-07-15,29,2,2,13,10,2,8,0,0,16.0,0.0,0,0,0,0
2015-07-16,29,2,0,0,2,2,0,0,0,0.0,0.0,0,0,0,0
2015-07-17,29,2,0,6,5,0,0,5,0,10.0,10.0,2,0,8,0
2015-07-18,29,2,22,19,23,0,16,7,0,73.0,21.0,8,2,6,5
2015-07-20,30,2,2,4,4,2,0,2,0,8.0,8.0,1,5,1,1
2015-07-22,30,2,0,18,17,0,17,0,0,34.0,0.0,0,0,0,0
2015-07-23,30,2,2,15,19,0,0,19,0,19.0,19.0,7,4,5,3
2015-07-24,30,2,0,9,10,2,8,0,0,16.0,0.0,0,0,0,0
2015-07-25,30,2,42,44,54,0,40,14,0,147.0,43.0,21,2,5,15
2015-07-26,31,2,3,3,4,0,4,0,0,12.0,0.0,0,0,0,0
2015-07-27,31,2,19,32,30,0,30,0,0,109.0,0.0,0,0,0,0
2015-07-28,31,2,4,20,17,0,17,0,0,56.0,0.0,0,0,0,0
2015-07-29,31,2,5,26,17,2,15,0,0,45.0,0.0,0,0,0,0
2015-07-30,31,2,1,9,7,0,7,0,0,14.0,0.0,0,0,0,0
2015-07-31,31,2,8,21,10,0,10,0,0,62.0,0.0,0,0,0,0
2015-08-01,31,2,18,15,18,0,6,12,0,60.0,36.0,9,10,10,7
2015-08-02,32,2,7,1,7,0,7,0,0,13.0,0.0,0,0,0,0
2015-08-03,32,2,14,28,27,0,27,0,0,77.0,0.0,0,0,0,0
2015-08-04,32,2,1,21,15,4,11,0,0,31.0,0.0,0,0,0,0
2015-08-05,32,2,5,86,71,2,69,0,0,175.0,0.0,0,0,0,0
2015-08-06,32,2,11,55,49,16,33,0,0,82.0,0.0,0,0,0,0
2015-08-07,32,2,14,55,56,14,41,1,0,105.0,4.0,3,1,0,0
2015-08-08,32,2,59,65,84,12,61,11,0,194.0,33.0,3,12,13,5
2015-08-09,33,2,45,25,55,12,43,0,0,109.0,0.0,0,0,0,0
2015-08-10,33,2,65,120,104,26,78,0,0,236.0,0.0,0,0,0,0
2015-08-11,33,2,9,144,106,14,92,0,0,246.0,0.0,0,0,0,0
2015-08-12,33,2,8,97,82,4,78,0,0,190.0,0.0,0,0,0,0
2015-08-13,33,2,11,65,51,4,47,0,0,153.0,0.0,0,0,0,0
2015-08-14,33,2,23,78,57,6,27,24,0,159.0,48.0,14,9,11,14
2015-08-15,33,2,53,50,69,6,37,26,0,199.0,74.0,23,21,15,15
2015-08-16,34,2,41,37,44,6,38,0,0,139.0,0.0,0,0,0,0
2015-08-17,34,2,44,85,72,6,64,2,0,225.0,10.0,5,1,2,2
2015-08-18,34,2,4,107,75,14,59,2,0,207.0,8.0,4,2,1,1
2015-08-19,34,2,21,109,67,9,58,0,0,210.0,0.0,0,0,0,0
2015-08-20,34,2,17,75,61,8,49,4,0,172.0,28.0,9,5,8,6
2015-08-21,34,2,34,78,72,6,61,5,0,221.0,20.0,4,2,5,9
2015-08-22,34,2,36,30,56,4,28,24,0,126.0,72.0,23,20,15,14
2015-08-23,35,2,38,32,41,2,39,0,0,126.0,0.0,0,0,0,0
2015-08-24,35,2,31,51,60,0,60,0,0,161.0,0.0,0,0,0,0
2015-08-25,35,2,4,106,68,5,61,2,0,197.0,14.0,1,7,3,3
2015-08-26,35,2,1,65,63,2,61,0,0,126.0,0.0,0,0,0,0
2015-08-27,35,2,8,30,33,0,33,0,0,84.0,0.0,0,0,0,0
2015-08-28,35,2,8,33,31,2,29,0,0,78.0,0.0,0,0,0,0
2015-08-29,35,2,31,35,54,2,41,11,0,117.0,33.0,18,2,12,1
2015-08-30,36,2,14,15,16,0,16,0,0,56.0,0.0,0,0,0,0
2015-08-31,36,2,39,91,62,2,50,10,0,220.0,30.0,8,4,6,12
2015-09-01,36,3,12,118,79,4,62,13,0,265.0,39.0,12,12,5,10
2015-09-02,36,3,6,101,65,10,55,0,0,173.0,0.0,0,0,0,0
2015-09-03,36,3,13,100,86,12,74,0,0,201.0,0.0,0,0,0,0
2015-09-04,36,3,43,119,108,2,64,42,0,261.0,72.0,20,22,24,6
2015-09-05,36,3,86,99,119,6,113,0,0,345.0,0.0,0,0,0,0
2015-09-06,37,3,60,34,50,0,45,5,0,160.0,18.0,4,8,2,4
2015-09-07,37,3,57,119,93,4,89,0,0,313.0,0.0,0,0,0,0
2015-09-08,37,3,11,128,83,6,75,2,0,243.0,18.0,3,7,5,3
2015-09-09,37,3,8,135,103,6,89,8,0,242.0,42.0,7,4,21,10
2015-09-10,37,3,24,82,54,2,52,0,0,190.0,0.0,0,0,0,0
2015-09-11,37,3,13,106,90,2,68,20,0,191.0,34.0,11,7,11,5
2015-09-12,37,3,55,75,71,0,67,4,0,248.0,4.0,0,4,0,0
2015-09-13,38,3,49,60,51,7,42,2,0,170.0,10.0,2,2,5,1
2015-09-14,38,3,52,97,87,6,79,2,0,266.0,14.0,1,10,1,2
2015-09-15,38,3,9,136,86,4,81,1,0,241.0,1.0,0,0,0,1
2015-09-16,38,3,17,120,80,6,71,3,0,231.0,18.0,4,8,4,2
2015-09-17,38,3,10,113,86,6,64,16,0,190.0,32.0,5,12,4,11
2015-09-18,38,3,21,75,76,7,36,33,0,141.0,54.0,14,8,15,17
2015-09-19,38,3,91,98,108,8,100,0,0,336.0,0.0,0,0,0,0
2015-09-20,39,3,103,89,92,17,75,0,0,261.0,0.0,0,0,0,0
2015-09-21,39,3,63,103,108,15,91,2,0,256.0,6.0,5,1,0,0
2015-09-22,39,3,0,109,83,12,67,4,0,157.0,8.0,3,5,0,0
2015-09-23,39,3,3,80,67,5,50,10,2,136.0,28.0,6,12,8,2
2015-09-24,39,3,19,86,64,4,57,3,0,141.0,2.0,0,2,0,0
2015-09-25,39,3,126,188,110,0,110,0,0,435.0,0.0,0,0,0,0
2015-09-26,39,3,63,60,55,2,53,0,0,158.0,0.0,0,0,0,0
2015-09-27,40,3,42,17,34,0,34,0,0,89.0,0.0,0,0,0,0
2015-09-28,40,3,30,46,38,0,38,0,0,119.0,0.0,0,0,0,0
2015-09-29,40,3,0,42,30,4,26,0,0,57.0,0.0,0,0,0,0
2015-09-30,40,3,3,88,79,11,43,25,0,136.0,41.0,5,19,10,7
2015-10-01,40,3,17,102,76,2,72,2,0,210.0,14.0,4,3,6,1
2015-10-02,40,3,40,105,95,0,95,0,0,262.0,0.0,0,0,0,0
2015-10-03,40,3,31,36,35,2,30,3,0,108.0,9.0,4,4,1,0
2015-10-04,41,3,110,87,100,4,92,4,0,321.0,14.0,1,1,2,10
2015-10-05,41,3,63,100,109,3,86,20,0,287.0,45.0,6,20,11,8
2015-10-06,41,3,2,134,86,2,84,0,0,266.0,0.0,0,0,0,0
2015-10-07,41,3,0,149,102,4,98,0,0,245.0,0.0,0,0,0,0
2015-10-08,41,3,9,63,47,4,43,0,0,119.0,0.0,0,0,0,0
2015-10-09,41,3,30,86,88,7,69,12,0,213.0,23.0,3,9,3,8
2015-10-10,41,3,62,46,91,11,80,0,0,190.0,0.0,0,0,0,0
2015-10-11,42,3,54,35,50,1,48,1,0,148.0,1.0,1,0,0,0
2015-10-12,42,3,65,117,105,4,101,0,0,308.0,0.0,0,0,0,0
2015-10-13,42,3,2,75,52,2,42,8,0,145.0,24.0,6,3,12,3
2015-10-14,42,3,5,67,46,1,43,2,0,127.0,4.0,3,0,0,1
2015-10-15,42,3,23,109,78,4,64,10,0,199.0,32.0,9,11,5,7
2015-10-16,42,3,27,101,93,6,62,25,0,219.0,48.0,16,12,8,12
2015-10-17,42,3,43,45,62,2,60,0,0,188.0,0.0,0,0,0,0
2015-10-18,43,3,85,79,90,3,87,0,0,339.0,0.0,0,0,0,0
2015-10-19,43,3,74,153,119,4,113,2,0,367.0,8.0,5,1,1,1
2015-10-20,43,3,8,169,97,0,97,0,0,308.0,0.0,0,0,0,0
2015-10-21,43,3,4,78,69,6,62,1,0,156.0,4.0,0,3,1,0
2015-10-22,43,3,12,65,62,10,50,2,0,140.0,14.0,2,3,2,7
2015-10-23,43,3,34,67,62,3,59,0,0,166.0,0.0,0,0,0,0
2015-10-24,43,3,28,47,47,2,45,0,0,130.0,0.0,0,0,0,0
2015-10-25,44,3,74,59,68,2,57,9,0,244.0,42.0,14,16,8,4
2015-10-26,44,3,32,76,57,1,52,4,0,221.0,20.0,8,3,7,2
2015-10-27,44,3,0,44,29,0,25,4,0,76.0,12.0,5,0,1,6
2015-10-28,44,3,4,109,68,6,56,6,0,194.0,18.0,5,7,4,2
2015-10-29,44,3,10,61,48,6,42,0,0,118.0,0.0,0,0,0,0
2015-10-30,44,3,16,49,46,4,42,0,0,108.0,0.0,0,0,0,0
2015-10-31,44,3,42,59,79,4,75,0,0,207.0,0.0,0,0,0,0
2015-11-01,45,3,45,40,46,1,45,0,0,161.0,0.0,0,0,0,0
2015-11-02,45,3,23,56,38,2,36,0,0,143.0,0.0,0,0,0,0
2015-11-03,45,3,1,50,31,0,31,0,0,97.0,0.0,0,0,0,0
2015-11-04,45,3,4,70,49,2,47,0,0,138.0,0.0,0,0,0,0
2015-11-05,45,3,9,65,51,2,49,0,0,129.0,0.0,0,0,0,0
2015-11-06,45,3,34,77,71,5,66,0,0,201.0,0.0,0,0,0,0
2015-11-07,45,3,22,23,36,5,31,0,0,82.0,0.0,0,0,0,0
2015-11-08,46,3,26,27,28,0,28,0,0,103.0,0.0,0,0,0,0
2015-11-09,46,3,22,46,35,2,33,0,0,113.0,0.0,0,0,0,0
2015-11-10,46,3,2,63,33,0,33,0,0,121.0,0.0,0,0,0,0
2015-11-11,46,3,2,55,39,0,39,0,0,97.0,0.0,0,0,0,0
2015-11-12,46,3,14,42,29,0,29,0,0,100.0,0.0,0,0,0,0
2015-11-13,46,3,9,28,29,0,29,0,0,73.0,0.0,0,0,0,0
2015-11-14,46,3,22,23,41,2,39,0,0,88.0,0.0,0,0,0,0
2015-11-15,47,3,18,18,16,6,10,0,0,31.0,0.0,0,0,0,0
2015-11-16,47,3,14,16,21,1,20,0,0,45.0,0.0,0,0,0,0
2015-11-17,47,3,2,64,42,2,40,0,0,100.0,0.0,0,0,0,0
2015-11-18,47,3,0,102,55,0,55,0,0,161.0,0.0,0,0,0,0
2015-11-19,47,3,0,35,30,0,28,2,0,70.0,4.0,1,0,3,0
2015-11-20,47,3,16,79,49,0,49,0,0,139.0,0.0,0,0,0,0
2015-11-21,47,3,17,28,18,0,18,0,0,67.0,0.0,0,0,0,0
2015-11-22,48,3,31,20,27,0,27,0,0,80.0,0.0,0,0,0,0
2015-11-23,48,3,80,195,100,2,98,0,0,334.0,0.0,0,0,0,0
2015-11-24,48,3,2,55,28,0,28,0,0,90.0,0.0,0,0,0,0
2015-11-25,48,3,4,29,18,0,18,0,0,61.0,0.0,0,0,0,0
2015-11-26,48,3,2,45,31,2,29,0,0,74.0,0.0,0,0,0,0
2015-11-27,48,3,18,47,44,1,43,0,0,121.0,0.0,0,0,0,0
2015-11-28,48,3,9,11,20,0,18,2,0,42.0,4.0,1,0,3,0
2015-11-29,49,3,16,9,17,2,15,0,0,44.0,0.0,0,0,0,0
2015-11-30,49,3,14,28,14,0,14,0,0,56.0,0.0,0,0,0,0
2015-12-01,49,0,0,26,16,2,14,0,0,29.0,0.0,0,0,0,0
2015-12-02,49,0,4,40,24,3,20,1,0,58.0,1.0,0,0,0,1
2015-12-03,49,0,10,50,38,0,38,0,0,108.0,0.0,0,0,0,0
2015-12-04,49,0,59,95,98,6,92,0,0,314.0,0.0,0,0,0,0
2015-12-05,49,0,146,100,165,11,142,12,0,461.0,45.0,8,12,15,10
2015-12-06,50,0,34,12,37,3,34,0,0,74.0,0.0,0,0,0,0
2015-12-07,50,0,6,4,11,0,11,0,0,17.0,0.0,0,0,0,0
2015-12-08,50,0,0,24,18,2,16,0,0,33.0,0.0,0,0,0,0
2015-12-09,50,0,1,52,38,0,38,0,0,103.0,0.0,0,0,0,0
2015-12-10,50,0,3,51,44,9,26,9,0,59.0,17.0,5,3,3,6
2015-12-11,50,0,9,42,47,2,45,0,0,97.0,0.0,0,0,0,0
2015-12-12,50,0,10,11,16,0,16,0,0,37.0,0.0,0,0,0,0
2015-12-13,51,0,11,9,9,0,9,0,0,28.0,0.0,0,0,0,0
2015-12-14,51,0,12,10,18,1,17,0,0,33.0,0.0,0,0,0,0
2015-12-15,51,0,0,19,10,0,10,0,0,22.0,0.0,0,0,0,0
2015-12-16,51,0,0,25,27,3,24,0,0,42.0,0.0,0,0,0,0
2015-12-17,51,0,1,36,30,3,27,0,0,58.0,0.0,0,0,0,0
2015-12-18,51,0,12,34,44,10,34,0,0,79.0,0.0,0,0,0,0
2015-12-19,51,0,24,30,50,10,38,2,0,105.0,8.0,4,2,1,1
2015-12-20,52,0,18,10,25,10,12,3,0,38.0,12.0,3,6,2,1
2015-12-21,52,0,12,16,22,4,18,0,0,50.0,0.0,0,0,0,0
2015-12-22,52,0,3,36,18,0,18,0,0,70.0,0.0,0,0,0,0
2015-12-23,52,0,12,70,35,3,27,5,0,136.0,20.0,6,5,4,5
2015-12-24,52,0,12,47,43,12,31,0,0,103.0,0.0,0,0,0,0
2015-12-25,52,0,21,41,41,5,36,0,0,120.0,0.0,0,0,0,0
2015-12-26,52,0,87,98,110,12,93,5,0,369.0,18.0,5,9,2,2
2015-12-27,53,0,96,77,104,14,83,7,0,339.0,21.0,2,3,2,14
2015-12-28,53,0,37,79,77,14,61,2,0,212.0,10.0,5,3,1,1
2015-12-29,53,0,3,165,106,10,91,5,0,317.0,20.0,10,5,3,2
2015-12-30,53,0,5,150,101,8,90,3,0,298.0,9.0,2,4,2,1
2015-12-31,53,0,11,130,105,9,90,6,0,253.0,18.0,2,10,5,1
2016-01-01,1,0,20,46,49,9,40,0,0,116.0,0.0,0,0,0,0
2016-01-02,1,0,81,67,97,4,54,39,0,262.0,123.0,34,24,27,38
2016-01-03,2,0,30,13,37,1,36,0,0,77.0,0.0,0,0,0,0
2016-01-04,2,0,30,44,49,7,40,2,0,113.0,12.0,1,1,8,2
2016-01-05,2,0,4,54,31,5,26,0,0,96.0,0.0,0,0,0,0
2016-01-06,2,0,2,45,44,8,36,0,0,71.0,0.0,0,0,0,0
2016-01-07,2,0,4,31,28,3,25,0,0,52.0,0.0,0,0,0,0
2016-01-08,2,0,20,52,51,14,35,2,0,116.0,4.0,3,0,1,0
2016-01-09,2,0,14,15,29,12,12,3,2,41.0,13.0,3,0,4,6
2016-01-10,3,0,35,38,36,4,32,0,0,144.0,0.0,0,0,0,0
2016-01-11,3,0,8,8,11,3,8,0,0,20.0,0.0,0,0,0,0
2016-01-12,3,0,0,37,27,6,21,0,0,52.0,0.0,0,0,0,0
2016-01-13,3,0,0,34,24,4,20,0,0,54.0,0.0,0,0,0,0
2016-01-14,3,0,3,68,51,5,46,0,0,113.0,0.0,0,0,0,0
2016-01-15,3,0,26,84,68,12,56,0,0,186.0,0.0,0,0,0,0
2016-01-16,3,0,20,39,49,15,34,0,0,84.0,0.0,0,0,0,0
2016-01-17,4,0,35,36,39,7,32,0,0,104.0,0.0,0,0,0,0
2016-01-18,4,0,18,33,25,1,24,0,0,66.0,0.0,0,0,0,0
2016-01-19,4,0,3,181,80,6,74,0,0,199.0,0.0,0,0,0,0
2016-01-20,4,0,3,54,38,12,26,0,0,52.0,0.0,0,0,0,0
2016-01-21,4,0,11,77,48,16,32,0,0,99.0,0.0,0,0,0,0
2016-01-22,4,0,9,47,49,4,45,0,0,98.0,0.0,0,0,0,0
2016-01-23,4,0,15,27,47,6,41,0,0,76.0,0.0,0,0,0,0
2016-01-24,5,0,40,30,40,2,38,0,0,129.0,0.0,0,0,0,0
2016-01-25,5,0,37,40,66,2,64,0,0,139.0,0.0,0,0,0,0
2016-01-26,5,0,1,35,26,6,20,0,0,40.0,0.0,0,0,0,0
2016-01-27,5,0,8,85,60,4,56,0,0,139.0,0.0,0,0,0,0
2016-01-28,5,0,4,49,46,6,40,0,0,98.0,0.0,0,0,0,0
2016-01-29,5,0,20,67,70,15,48,7,0,143.0,16.0,0,4,7,5
2016-01-30,5,0,22,33,47,6,41,0,0,103.0,0.0,0,0,0,0
2016-01-31,6,0,34,24,28,0,26,2,0,101.0,6.0,0,0,1,5
2016-02-01,6,0,22,31,35,6,29,0,0,71.0,0.0,0,0,0,0
2016-02-02,6,0,0,24,19,0,19,0,0,35.0,0.0,0,0,0,0
2016-02-03,6,0,5,109,70,5,65,0,0,197.0,0.0,0,0,0,0
2016-02-04,6,0,15,86,62,7,55,0,0,145.0,0.0,0,0,0,0
2016-02-05,6,0,30,100,94,18,73,3,0,216.0,6.0,0,0,1,5
2016-02-06,6,0,70,80,108,21,77,10,0,232.0,28.0,5,10,3,10
2016-02-07,7,0,88,63,96,6,89,1,0,284.0,5.0,1,1,0,3
2016-02-08,7,0,46,92,104,16,84,4,0,254.0,8.0,0,3,4,1
2016-02-09,7,0,2,51,42,0,40,2,0,115.0,2.0,2,0,0,0
2016-02-10,7,0,7,79,62,4,58,0,0,150.0,0.0,0,0,0,0
2016-02-11,7,0,22,124,84,12,68,4,0,228.0,12.0,4,1,1,6
2016-02-12,7,0,41,143,160,44,112,4,0,303.0,12.0,0,10,2,0
2016-02-13,7,0,69,107,164,33,126,5,0,319.0,11.0,1,2,3,5
2016-02-14,8,0,83,84,84,13,58,13,0,275.0,57.0,9,25,15,8
2016-02-15,8,0,39,89,71,6,65,0,0,221.0,0.0,0,0,0,0
2016-02-16,8,0,0,64,53,8,45,0,0,97.0,0.0,0,0,0,0
2016-02-17,8,0,4,77,57,7,48,2,0,157.0,6.0,1,3,1,1
2016-02-18,8,0,8,92,68,10,56,2,0,172.0,8.0,1,5,1,1
2016-02-19,8,0,33,128,128,12,116,0,0,266.0,0.0,0,0,0,0
2016-02-20,8,0,62,72,104,16,88,0,0,248.0,0.0,0,0,0,0
2016-02-21,9,0,70,67,78,9,69,0,0,249.0,0.0,0,0,0,0
2016-02-22,9,0,50,117,94,9,83,2,0,309.0,4.0,0,3,1,0
2016-02-23,9,0,0,89,63,8,50,5,0,172.0,13.0,5,5,2,1
2016-02-24,9,0,1,97,70,6,55,9,0,178.0,33.0,4,21,3,5
2016-02-25,9,0,9,94,89,18,71,0,0,196.0,0.0,0,0,0,0
2016-02-26,9,0,26,107,114,22,92,0,0,225.0,0.0,0,0,0,0
2016-02-27,9,0,67,102,118,4,112,2,0,283.0,10.0,3,2,1,4
2016-02-28,10,0,86,67,72,6,65,1,0,232.0,3.0,0,0,0,3
2016-02-29,10,0,34,64,49,0,42,7,0,161.0,25.0,7,6,5,7
2016-03-01,10,1,13,159,78,7,69,2,0,250.0,10.0,2,1,1,6
2016-03-02,10,1,13,160,108,15,93,0,0,255.0,0.0,0,0,0,0
2016-03-03,10,1,32,142,106,11,87,8,0,311.0,28.0,4,7,7,10
2016-03-04,10,1,38,134,138,23,111,4,0,304.0,12.0,1,1,4,6
2016-03-05,10,1,88,105,103,27,70,6,0,288.0,14.0,0,8,6,0
2016-03-06,11,1,62,51,71,7,58,6,0,182.0,16.0,5,4,6,1
2016-03-07,11,1,60,130,90,11,72,7,0,283.0,25.0,3,12,5,5
2016-03-08,11,1,2,115,79,12,64,3,0,156.0,8.0,0,5,3,0
2016-03-09,11,1,6,145,93,11,80,2,0,252.0,6.0,0,5,0,1
2016-03-10,11,1,26,145,110,27,83,0,0,272.0,0.0,0,0,0,0
2016-03-11,11,1,71,182,146,39,102,5,0,295.0,12.0,2,2,8,0
2016-03-12,11,1,74,97,97,15,76,6,0,286.0,28.0,5,9,10,4
2016-03-13,12,1,95,65,90,16,74,0,0,253.0,0.0,0,0,0,0
2016-03-14,12,1,50,121,90,13,70,7,0,267.0,29.0,5,11,6,7
2016-03-15,12,1,8,124,73,20,46,7,0,192.0,31.0,7,9,10,5
2016-03-16,12,1,8,130,83,9,68,4,2,211.0,14.0,4,4,1,5
2016-03-17,12,1,30,140,101,11,89,1,0,297.0,1.0,0,1,0,0
2016-03-18,12,1,37,105,112,10,90,12,0,269.0,22.0,1,6,7,8
2016-03-19,12,1,76,87,106,14,87,5,0,301.0,9.0,1,4,1,3
2016-03-20,13,1,144,136,168,14,151,3,0,531.0,12.0,3,2,5,2
2016-03-21,13,1,69,134,138,32,106,0,0,344.0,0.0,0,0,0,0
2016-03-22,13,1,5,114,96,15,81,0,0,237.0,0.0,0,0,0,0
2016-03-23,13,1,16,169,119,18,98,3,0,342.0,15.0,4,3,6,2
2016-03-24,13,1,28,204,175,16,154,5,0,474.0,11.0,2,4,1,4
2016-03-25,13,1,57,119,138,18,120,0,0,361.0,0.0,0,0,0,0
2016-03-26,13,1,56,57,89,12,77,0,0,242.0,0.0,0,0,0,0
2016-03-27,14,1,54,40,67,8,47,12,0,186.0,36.0,3,4,18,11
2016-03-28,14,1,73,180,164,14,146,4,0,532.0,24.0,4,8,9,3
2016-03-29,14,1,7,172,100,18,80,2,0,288.0,10.0,1,6,1,2
2016-03-30,14,1,14,112,87,13,62,12,0,236.0,46.0,12,12,9,13
2016-03-31,14,1,23,161,110,10,98,2,0,312.0,4.0,0,0,4,0
2016-04-01,14,1,47,102,100,15,83,2,0,251.0,10.0,5,2,2,1
2016-04-02,14,1,58,78,83,13,65,5,0,259.0,30.0,6,5,5,14
2016-04-03,15,1,82,70,89,22,63,4,0,250.0,20.0,5,6,3,6
2016-04-04,15,1,61,123,114,9,97,8,0,332.0,32.0,5,5,18,4
2016-04-05,15,1,1,114,83,13,65,5,0,200.0,15.0,2,10,1,2
2016-04-06,15,1,10,114,84,6,60,18,0,235.0,18.0,5,3,8,2
2016-04-07,15,1,15,106,98,9,89,0,0,238.0,0.0,0,0,0,0
2016-04-08,15,1,56,136,148,30,118,0,0,342.0,0.0,0,0,0,0
2016-04-09,15,1,88,103,113,19,82,12,0,312.0,26.0,9,1,8,8
2016-04-10,16,1,76,58,79,13,64,2,0,237.0,8.0,2,4,1,1
2016-04-11,16,1,85,181,164,16,140,8,0,519.0,36.0,16,4,5,11
2016-04-12,16,1,8,171,107,19,83,5,0,320.0,19.0,7,6,3,3
2016-04-13,16,1,4,124,124,24,90,10,0,240.0,10.0,5,3,0,2
2016-04-14,16,1,18,106,81,17,64,0,0,210.0,0.0,0,0,0,0
2016-04-15,16,1,34,111,130,14,112,4,0,285.0,8.0,1,1,5,1
2016-04-16,16,1,89,96,132,20,112,0,0,347.0,0.0,0,0,0,0
2016-04-17,17,1,128,92,143,20,119,4,0,438.0,20.0,7,4,7,2
2016-04-18,17,1,63,116,119,24,88,7,0,294.0,32.0,3,9,10,10
2016-04-19,17,1,1,83,58,6,52,0,0,160.0,0.0,0,0,0,0
2016-04-20,17,1,3,150,110,1,98,9,2,279.0,20.0,5,8,2,5
2016-04-21,17,1,24,163,140,7,129,4,0,394.0,12.0,1,4,6,1
2016-04-22,17,1,49,108,114,11,103,0,0,300.0,0.0,0,0,0,0
2016-04-23,17,1,95,97,128,14,112,2,0,369.0,10.0,2,5,2,1
2016-04-24,18,1,85,66,106,12,86,8,0,305.0,30.0,9,7,7,7
2016-04-25,18,1,60,137,126,20,106,0,0,371.0,0.0,0,0,0,0
2016-04-26,18,1,6,152,103,11,80,12,0,293.0,26.0,2,4,9,11
2016-04-27,18,1,19,147,95,19,73,3,0,259.0,3.0,3,0,0,0
2016-04-28,18,1,42,185,138,16,118,4,0,400.0,4.0,2,0,2,0
2016-04-29,18,1,60,136,132,8,124,0,0,388.0,0.0,0,0,0,0
2016-04-30,18,1,65,94,99,4,90,5,0,310.0,16.0,6,6,2,2
2016-05-01,19,1,62,43,67,8,59,0,0,198.0,0.0,0,0,0,0
2016-05-02,19,1,75,134,141,22,119,0,0,336.0,0.0,0,0,0,0
2016-05-03,19,1,0,75,54,9,39,6,0,133.0,18.0,2,6,9,1
2016-05-04,19,1,7,128,86,4,77,5,0,253.0,20.0,3,7,4,6
2016-05-05,19,1,30,196,131,10,110,11,0,384.0,33.0,12,11,5,5
2016-05-06,19,1,30,114,111,6,103,2,0,272.0,10.0,2,5,2,1
2016-05-07,19,1,54,71,96,24,69,3,0,219.0,12.0,3,5,2,2
2016-05-08,20,1,90,57,96,23,70,3,0,232.0,11.0,1,3,2,5
2016-05-09,20,1,116,212,143,26,109,8,0,468.0,36.0,14,5,5,12
2016-05-10,20,1,3,119,73,6,61,6,0,195.0,18.0,0,1,12,5
2016-05-11,20,1,8,157,102,9,91,2,0,316.0,6.0,0,0,6,0
2016-05-12,20,1,39,139,113,14,97,2,0,340.0,6.0,0,4,1,1
2016-05-13,20,1,55,117,129,25,104,0,0,293.0,0.0,0,0,0,0
2016-05-14,20,1,44,57,81,2,76,3,0,224.0,6.0,0,1,1,4
2016-05-15,21,1,109,92,116,4,105,7,0,409.0,24.0,12,3,2,7
2016-05-16,21,1,70,109,121,24,93,4,0,289.0,14.0,3,4,2,5
2016-05-17,21,1,3,177,104,10,85,9,0,257.0,24.0,11,5,2,6
2016-05-18,21,1,3,92,77,14,63,0,0,154.0,0.0,0,0,0,0
2016-05-19,21,1,23,139,134,15,117,2,0,331.0,14.0,1,9,2,2
2016-05-20,21,1,29,77,101,8,91,2,0,191.0,2.0,0,0,2,0
2016-05-21,21,1,85,113,163,15,114,34,0,364.0,77.0,15,27,18,17
2016-05-22,22,1,121,92,132,23,106,3,0,384.0,15.0,9,4,1,1
2016-05-23,22,1,65,81,99,31,66,2,0,189.0,6.0,1,3,1,1
2016-05-24,22,1,1,83,72,8,64,0,0,134.0,0.0,0,0,0,0
2016-05-25,22,1,6,88,73,13,60,0,0,188.0,0.0,0,0,0,0
2016-05-26,22,1,9,140,104,3,101,0,0,291.0,0.0,0,0,0,0
2016-05-27,22,1,15,48,64,2,62,0,0,137.0,0.0,0,0,0,0
2016-05-28,22,1,24,47,61,6,55,0,0,152.0,0.0,0,0,0,0
2016-05-29,23,1,146,119,162,17,139,6,0,495.0,34.0,7,9,15,3
2016-05-30,23,1,74,143,120,13,107,0,0,353.0,0.0,0,0,0,0
2016-05-31,23,1,2,157,103,20,83,0,0,236.0,0.0,0,0,0,0
2016-06-01,23,2,6,100,72,16,54,2,0,178.0,10.0,1,6,1,2
2016-06-02,23,2,10,147,130,17,107,6,0,288.0,18.0,4,5,3,6
2016-06-03,23,2,30,112,127,6,121,0,0,270.0,0.0,0,0,0,0
2016-06-04,23,2,61,57,94,12,82,0,0,210.0,0.0,0,0,0,0
2016-06-05,24,2,35,19,45,8,37,0,0,84.0,0.0,0,0,0,0
2016-06-06,24,2,98,185,127,6,87,34,0,336.0,64.0,19,17,14,14
2016-06-07,24,2,5,105,63,3,58,2,0,187.0,6.0,4,1,0,1
2016-06-08,24,2,7,124,106,9,95,2,0,240.0,4.0,0,0,1,3
2016-06-09,24,2,21,147,120,21,94,5,0,307.0,10.0,0,3,1,6
2016-06-10,24,2,43,122,122,16,103,3,0,286.0,9.0,2,1,5,1
2016-06-11,24,2,47,52,84,4,80,0,0,190.0,0.0,0,0,0,0
2016-06-12,25,2,90,50,106,17,85,4,0,253.0,14.0,1,6,2,5
2016-06-13,25,2,62,98,115,29,82,4,0,262.0,16.0,1,3,6,6
2016-06-14,25,2,3,113,81,15,63,3,0,163.0,5.0,3,2,0,0
2016-06-15,25,2,6,103,75,9,48,18,0,188.0,34.0,10,8,9,7
2016-06-16,25,2,23,121,90,20,56,14,0,234.0,46.0,14,11,12,9
2016-06-17,25,2,81,175,166,27,132,7,0,434.0,19.0,2,7,7,3
2016-06-18,25,2,49,58,94,7,85,2,0,224.0,10.0,3,2,4,1
2016-06-19,26,2,114,86,133,11,112,10,0,403.0,28.0,11,7,7,3
2016-06-20,26,2,87,149,151,21,126,4,0,395.0,14.0,2,2,6,4
2016-06-21,26,2,0,122,90,14,74,0,2,186.0,6.0,4,0,1,1
2016-06-22,26,2,3,80,69,16,53,0,0,105.0,0.0,0,0,0,0
2016-06-23,26,2,2,46,66,9,57,0,0,83.0,0.0,0,0,0,0
2016-06-24,26,2,9,118,85,0,62,23,0,184.0,46.0,12,8,13,13
2016-06-25,26,2,8,12,9,0,9,0,0,47.0,0.0,0,0,0,0
2016-06-26,27,2,218,169,237,46,180,11,0,657.0,46.0,9,21,9,7
2016-06-27,27,2,77,152,162,25,131,6,0,442.0,28.0,11,7,3,7
2016-06-28,27,2,35,230,134,29,103,2,0,508.0,16.0,2,2,9,3
2016-06-29,27,2,10,131,108,15,90,3,0,259.0,9.0,5,1,1,2
2016-06-30,27,2,34,146,117,29,84,4,0,288.0,20.0,8,5,4,3
2016-07-01,27,2,58,158,152,24,126,2,0,458.0,20.0,5,9,2,4
2016-07-02,27,2,63,80,110,14,96,0,0,285.0,0.0,0,0,0,0
2016-07-03,28,2,125,128,135,18,108,9,0,466.0,52.0,9,14,15,14
2016-07-04,28,2,70,144,120,14,96,10,0,381.0,32.0,16,6,5,5
2016-07-05,28,2,19,177,118,19,97,2,0,333.0,12.0,8,1,1,2
2016-07-06,28,2,37,238,162,32,130,0,0,485.0,0.0,0,0,0,0
2016-07-07,28,2,27,118,110,18,92,0,0,288.0,0.0,0,0,0,0
2016-07-08,28,2,42,110,138,21,117,0,0,294.0,0.0,0,0,0,0
2016-07-09,28,2,74,93,131,4,112,15,0,381.0,38.0,6,10,14,8
2016-07-10,29,2,119,108,147,13,120,14,0,514.0,84.0,19,24,31,10
2016-07-11,29,2,85,153,151,14,132,5,0,486.0,29.0,8,5,10,6
2016-07-12,29,2,7,177,143,10,125,8,0,398.0,39.0,9,11,7,12
2016-07-13,29,2,42,258,167,19,125,23,0,629.0,106.0,27,28,28,23
2016-07-14,29,2,21,155,129,21,108,0,0,338.0,0.0,0,0,0,0
2016-07-15,29,2,53,109,125,15,110,0,0,359.0,0.0,0,0,0,0
2016-07-16,29,2,99,126,154,12,120,22,0,478.0,81.0,26,13,30,12
2016-07-17,30,2,86,65,113,8,105,0,0,327.0,0.0,0,0,0,0
2016-07-18,30,2,94,184,154,12,129,13,0,566.0,67.0,21,19,20,7
2016-07-19,30,2,5,121,102,9,88,5,0,259.0,13.0,1,6,5,1
2016-07-20,30,2,15,117,120,19,95,6,0,232.0,6.0,3,0,0,3
2016-07-21,30,2,29,122,113,4,90,19,0,345.0,48.0,12,10,6,20
2016-07-22,30,2,29,85,85,4,79,2,0,255.0,14.0,3,2,2,7
2016-07-23,30,2,129,195,217,35,164,18,0,572.0,66.0,17,20,15,14
2016-07-24,31,2,101,95,129,15,112,2,0,444.0,8.0,2,1,1,4
2016-07-25,31,2,70,156,146,18,117,11,0,455.0,42.0,9,16,10,7
2016-07-26,31,2,14,161,130,0,118,12,0,437.0,12.0,6,3,0,3
2016-07-27,31,2,12,138,129,22,97,10,0,332.0,34.0,9,12,4,9
2016-07-28,31,2,36,157,142,21,119,2,0,402.0,2.0,0,2,0,0
2016-07-29,31,2,24,92,129,29,92,8,0,219.0,50.0,13,19,12,6
2016-07-30,31,2,68,96,110,2,88,20,0,365.0,82.0,24,23,15,20
2016-07-31,32,2,83,91,98,10,88,0,0,390.0,0.0,0,0,0,0
2016-08-01,32,2,90,179,179,20,151,8,0,593.0,25.0,12,3,8,2
2016-08-02,32,2,17,169,136,33,101,2,0,390.0,10.0,3,2,1,4
2016-08-03,32,2,42,231,153,22,123,8,0,565.0,44.0,10,8,10,16
2016-08-04,32,2,36,153,148,16,126,6,0,425.0,21.0,2,10,2,7
2016-08-05,32,2,47,109,129,13,108,8,0,333.0,8.0,0,1,6,1
2016-08-06,32,2,75,107,160,22,132,6,0,402.0,22.0,6,2,7,7
2016-08-07,33,2,98,66,130,31,94,5,0,325.0,7.0,1,3,3,0
2016-08-08,33,2,98,209,191,18,162,11,0,678.0,42.0,9,15,15,3
2016-08-09,33,2,12,212,130,20,110,0,0,416.0,0.0,0,0,0,0
2016-08-10,33,2,13,124,111,13,86,12,0,302.0,15.0,2,6,4,3
2016-08-11,33,2,41,150,138,10,125,3,0,415.0,9.0,1,1,6,1
2016-08-12,33,2,54,134,145,20,103,22,0,373.0,36.0,8,7,13,8
2016-08-13,33,2,95,123,179,17,146,16,0,496.0,52.0,10,10,10,22
2016-08-14,34,2,111,113,140,8,125,7,0,513.0,31.0,14,10,4,3
2016-08-15,34,2,70,146,150,17,120,13,0,444.0,59.0,15,23,12,9
2016-08-16,34,2,14,168,147,27,100,20,0,379.0,92.0,25,24,19,24
2016-08-17,34,2,7,111,134,27,107,0,0,228.0,0.0,0,0,0,0
2016-08-18,34,2,20,106,84,4,60,20,0,242.0,46.0,18,13,11,4
2016-08-19,34,2,55,120,143,17,93,33,0,398.0,142.0,49,23,27,43
2016-08-20,34,2,88,134,185,33,143,9,0,458.0,21.0,7,5,5,4
2016-08-21,35,2,148,115,172,29,139,4,0,516.0,40.0,8,6,21,5
2016-08-22,35,2,73,160,148,14,130,4,0,496.0,24.0,6,7,9,2
2016-08-23,35,2,24,152,105,14,79,12,0,373.0,56.0,24,11,14,7
2016-08-24,35,2,11,161,144,22,108,14,0,346.0,35.0,4,10,12,9
2016-08-25,35,2,34,143,124,6,112,6,0,376.0,24.0,7,3,5,9
2016-08-26,35,2,69,131,134,18,116,0,0,409.0,0.0,0,0,0,0
2016-08-27,35,2,60,86,78,12,64,2,0,195.0,10.0,3,1,1,5
2016-08-28,36,2,145,121,182,34,132,16,0,545.0,72.0,22,17,16,17
2016-08-29,36,2,77,170,135,25,110,0,0,430.0,0.0,0,0,0,0
2016-08-30,36,2,6,164,128,9,114,5,0,360.0,22.0,6,7,3,6
2016-08-31,36,2,9,162,118,24,92,2,0,276.0,8.0,2,1,4,1
2016-09-01,36,3,36,172,134,31,95,8,0,363.0,36.0,7,4,13,12
2016-09-02,36,3,46,117,137,33,94,10,0,308.0,27.0,13,7,5,2
2016-09-03,36,3,84,101,118,14,79,25,0,346.0,66.0,19,18,8,21
2016-09-04,37,3,98,101,101,14,82,5,0,338.0,18.0,7,2,3,6
2016-09-05,37,3,83,191,151,18,124,9,0,522.0,49.0,9,15,5,20
2016-09-06,37,3,11,158,95,13,67,15,0,301.0,79.0,22,21,14,22
2016-09-07,37,3,18,114,90,13,71,6,0,263.0,30.0,7,8,9,6
2016-09-08,37,3,20,136,104,12,90,2,0,289.0,12.0,1,2,7,2
2016-09-09,37,3,35,99,115,36,70,9,0,212.0,28.0,5,9,8,6
2016-09-10,37,3,62,72,103,15,67,21,0,253.0,42.0,17,5,12,8
2016-09-11,38,3,151,68,170,39,127,4,0,390.0,14.0,1,1,11,1
2016-09-12,38,3,81,118,135,29,104,2,0,346.0,10.0,2,2,5,1
2016-09-13,38,3,12,179,98,0,77,21,0,329.0,48.0,11,9,12,16
2016-09-14,38,3,10,131,82,10,72,0,0,243.0,0.0,0,0,0,0
2016-09-15,38,3,19,171,174,55,118,1,0,290.0,2.0,0,0,2,0
2016-09-16,38,3,42,143,152,27,108,17,0,332.0,34.0,9,8,9,8
2016-09-17,38,3,69,80,87,13,64,10,0,234.0,30.0,17,4,2,7
2016-09-18,39,3,124,87,131,14,115,2,0,387.0,14.0,9,2,2,1
2016-09-19,39,3,80,114,128,20,104,4,0,302.0,14.0,3,1,5,5
2016-09-20,39,3,6,94,102,15,87,0,0,175.0,0.0,0,0,0,0
2016-09-21,39,3,12,151,111,2,75,34,0,286.0,79.0,27,23,12,17
2016-09-22,39,3,28,181,128,17,111,0,0,279.0,0.0,0,0,0,0
2016-09-23,39,3,23,111,120,15,105,0,0,254.0,0.0,0,0,0,0
2016-09-24,39,3,52,72,74,4,70,0,0,267.0,0.0,0,0,0,0
2016-09-25,40,3,137,85,146,34,106,6,0,369.0,27.0,7,3,2,15
2016-09-26,40,3,71,113,119,11,91,17,0,313.0,48.0,11,9,18,10
2016-09-27,40,3,6,130,102,26,76,0,0,170.0,0.0,0,0,0,0
2016-09-28,40,3,3,134,92,6,67,19,0,234.0,69.0,20,14,19,16
2016-09-29,40,3,17,120,99,18,65,16,0,238.0,50.0,4,8,20,18
2016-09-30,40,3,48,111,113,7,106,0,0,302.0,0.0,0,0,0,0
2016-10-01,40,3,53,51,77,10,51,16,0,197.0,43.0,14,14,10,5
2016-10-02,41,3,139,103,144,24,112,8,0,424.0,34.0,5,8,10,11
2016-10-03,41,3,92,151,167,28,139,0,0,393.0,0.0,0,0,0,0
2016-10-04,41,3,10,154,106,8,93,5,0,295.0,20.0,6,5,3,6
2016-10-05,41,3,10,128,107,19,86,2,0,231.0,2.0,0,2,0,0
2016-10-06,41,3,27,139,113,10,100,3,0,285.0,14.0,1,5,6,2
2016-10-07,41,3,66,172,153,11,135,7,0,410.0,14.0,1,6,4,3
2016-10-08,41,3,55,54,82,11,66,5,0,190.0,17.0,3,3,9,2
2016-10-09,42,3,99,73,115,13,102,0,0,334.0,0.0,0,0,0,0
2016-10-10,42,3,79,119,132,9,121,2,0,324.0,8.0,1,4,2,1
2016-10-11,42,3,2,80,58,10,48,0,0,100.0,0.0,0,0,0,0
2016-10-12,42,3,2,102,70,8,59,3,0,159.0,6.0,0,5,1,0
2016-10-13,42,3,18,161,128,21,105,2,0,252.0,4.0,1,0,3,0
2016-10-14,42,3,33,97,79,4,61,14,0,227.0,28.0,8,10,6,4
2016-10-15,42,3,54,67,87,7,78,2,0,275.0,8.0,1,4,2,1
2016-10-16,43,3,130,133,132,19,113,0,0,468.0,0.0,0,0,0,0
2016-10-17,43,3,66,136,122,21,94,7,0,381.0,45.0,9,16,11,9
2016-10-18,43,3,7,125,78,14,62,2,0,230.0,8.0,4,2,1,1
2016-10-19,43,3,15,145,82,17,60,5,0,258.0,25.0,10,4,8,3
2016-10-20,43,3,20,131,110,16,92,2,0,281.0,8.0,4,1,2,1
2016-10-21,43,3,44,125,132,20,109,3,0,373.0,12.0,5,3,2,2
2016-10-22,43,3,45,80,75,4,61,10,0,281.0,28.0,7,1,18,2
2016-10-23,44,3,102,83,97,10,68,19,0,315.0,44.0,16,12,11,5
2016-10-24,44,3,53,122,112,8,83,21,0,369.0,90.0,24,32,16,18
2016-10-25,44,3,3,214,153,34,115,4,0,359.0,12.0,0,1,7,4
2016-10-26,44,3,5,128,93,16,75,2,0,210.0,4.0,1,3,0,0
2016-10-27,44,3,16,110,96,21,73,2,0,202.0,6.0,5,1,0,0
2016-10-28,44,3,61,145,169,32,131,6,0,368.0,18.0,2,5,9,2
2016-10-29,44,3,97,89,145,26,108,11,0,318.0,31.0,10,8,7,6
2016-10-30,45,3,141,92,136,22,112,2,0,380.0,4.0,0,0,1,3
2016-10-31,45,3,61,128,126,21,91,14,0,331.0,58.0,9,13,15,21
2016-11-01,45,3,5,179,100,25,70,5,0,273.0,20.0,8,2,8,2
2016-11-02,45,3,14,196,119,30,83,6,0,316.0,24.0,12,3,6,3
2016-11-03,45,3,18,112,83,13,70,0,0,213.0,0.0,0,0,0,0
2016-11-04,45,3,36,104,98,18,80,0,0,220.0,0.0,0,0,0,0
2016-11-05,45,3,34,57,57,12,44,1,0,142.0,6.0,0,1,1,4
2016-11-06,46,3,108,122,81,17,64,0,0,254.0,0.0,0,0,0,0
2016-11-07,46,3,78,175,113,25,88,0,0,293.0,0.0,0,0,0,0
2016-11-08,46,3,4,73,44,11,31,2,0,91.0,10.0,3,2,1,4
2016-11-09,46,3,6,66,41,6,35,0,0,106.0,0.0,0,0,0,0
2016-11-10,46,3,20,138,109,24,85,0,0,247.0,0.0,0,0,0,0
2016-11-11,46,3,65,180,174,37,131,6,0,397.0,14.0,1,10,1,2
2016-11-12,46,3,82,95,98,32,66,0,0,240.0,0.0,0,0,0,0
2016-11-13,47,3,107,105,101,14,85,2,0,346.0,8.0,1,1,5,1
2016-11-14,47,3,68,157,103,17,82,4,0,368.0,18.0,5,3,5,5
2016-11-15,47,3,4,104,56,11,43,2,0,146.0,8.0,4,2,1,1
2016-11-16,47,3,18,169,103,20,79,4,0,265.0,12.0,3,1,6,2
2016-11-17,47,3,21,129,91,27,64,0,0,200.0,0.0,0,0,0,0
2016-11-18,47,3,54,146,148,37,107,4,0,314.0,10.0,5,0,5,0
2016-11-19,47,3,62,81,98,19,75,4,0,247.0,20.0,5,2,7,6
2016-11-20,48,3,67,59,66,12,54,0,0,194.0,0.0,0,0,0,0
2016-11-21,48,3,100,155,134,13,117,4,0,321.0,16.0,6,2,6,2
2016-11-22,48,3,2,86,66,12,51,3,0,149.0,15.0,5,1,8,1
2016-11-23,48,3,1,107,72,11,59,2,0,161.0,8.0,1,1,1,5
2016-11-24,48,3,19,95,76,8,64,4,0,206.0,12.0,2,4,5,1
2016-11-25,48,3,37,146,156,32,122,2,0,299.0,0.0,0,0,0,0
2016-11-26,48,3,57,66,80,10,66,4,0,209.0,14.0,5,2,5,2
2016-11-27,49,3,66,70,61,5,56,0,0,234.0,0.0,0,0,0,0
2016-11-28,49,3,47,74,71,6,65,0,0,183.0,0.0,0,0,0,0
2016-11-29,49,3,2,80,59,4,51,4,0,144.0,8.0,1,3,3,1
2016-11-30,49,3,12,63,47,11,36,0,0,93.0,0.0,0,0,0,0
2016-12-01,49,0,21,96,75,14,55,6,0,212.0,20.0,4,6,2,8
2016-12-02,49,0,34,99,101,20,81,0,0,223.0,0.0,0,0,0,0
2016-12-03,49,0,78,86,114,12,87,15,0,335.0,60.0,20,14,14,12
2016-12-04,50,0,70,48,69,17,50,2,0,168.0,6.0,5,0,0,1
2016-12-05,50,0,61,97,95,27,66,2,0,200.0,8.0,2,1,1,4
2016-12-06,50,0,4,88,72,10,62,0,0,206.0,0.0,0,0,0,0
2016-12-07,50,0,6,137,95,16,77,2,0,263.0,8.0,5,1,1,1
2016-12-08,50,0,18,219,182,16,166,0,0,479.0,0.0,0,0,0,0
2016-12-09,50,0,26,93,88,19,67,2,0,189.0,18.0,6,7,2,3
2016-12-10,50,0,37,50,79,10,69,0,0,164.0,0.0,0,0,0,0
2016-12-11,51,0,16,4,22,1,21,0,0,35.0,0.0,0,0,0,0
2016-12-12,51,0,23,33,36,9,23,4,0,71.0,14.0,3,1,6,4
2016-12-13,51,0,5,88,53,7,39,7,0,146.0,35.0,11,7,12,5
2016-12-14,51,0,9,70,44,6,36,2,0,130.0,10.0,2,6,1,1
2016-12-15,51,0,8,46,31,7,20,4,0,71.0,12.0,3,6,1,2
2016-12-16,51,0,10,53,63,13,50,0,0,111.0,0.0,0,0,0,0
2016-12-17,51,0,42,50,66,21,41,4,0,104.0,4.0,0,0,2,2
2016-12-18,52,0,59,40,62,8,54,0,0,163.0,0.0,0,0,0,0
2016-12-19,52,0,36,60,57,8,47,2,0,143.0,6.0,5,0,0,1
2016-12-20,52,0,15,92,58,14,34,10,0,190.0,52.0,17,10,13,12
2016-12-21,52,0,19,105,69,9,36,24,0,248.0,114.0,27,21,26,40
2016-12-22,52,0,28,82,73,10,61,2,0,237.0,10.0,5,3,1,1
2016-12-23,52,0,44,76,79,8,64,7,0,278.0,37.0,17,9,6,5
2016-12-24,52,0,53,69,70,9,42,17,2,215.0,72.0,18,24,15,15
2016-12-25,53,0,59,34,75,10,65,0,0,199.0,0.0,0,0,0,0
2016-12-26,53,0,41,95,92,6,78,8,0,304.0,34.0,7,10,7,10
2016-12-27,53,0,33,274,196,15,172,9,0,624.0,19.0,7,7,3,2
2016-12-28,53,0,23,177,119,24,85,10,0,356.0,28.0,5,4,13,6
2016-12-29,53,0,44,147,108,15,89,4,0,318.0,12.0,3,6,1,2
2016-12-30,53,0,41,116,117,8,103,6,0,303.0,24.0,2,7,10,5
2016-12-31,53,0,35,39,55,4,47,4,0,156.0,20.0,8,3,7,2
2017-01-01,1,0,76,65,98,4,89,5,0,287.0,20.0,6,4,8,2
2017-01-02,1,0,75,169,164,29,127,8,0,447.0,32.0,7,10,11,4
2017-01-03,1,0,13,164,109,21,79,9,0,303.0,41.0,9,15,12,5
2017-01-04,1,0,8,103,71,23,45,3,0,154.0,9.0,2,1,1,5
2017-01-05,1,0,10,78,65,8,49,8,0,173.0,27.0,3,8,13,3
2017-01-06,1,0,32,62,70,7,58,5,0,196.0,14.0,4,3,2,5
2017-01-07,1,0,54,74,67,10,47,10,0,201.0,22.0,10,4,6,2
2017-01-08,2,0,49,41,51,9,31,11,0,144.0,43.0,22,9,6,6
2017-01-09,2,0,31,67,53,7,42,4,0,159.0,20.0,3,9,2,6
2017-01-10,2,0,4,87,61,10,49,2,0,143.0,6.0,0,6,0,0
2017-01-11,2,0,6,80,51,9,40,2,0,139.0,10.0,3,4,2,1
2017-01-12,2,0,13,93,74,19,50,5,0,138.0,5.0,0,2,0,3
2017-01-13,2,0,21,66,84,11,62,11,0,181.0,24.0,4,5,5,10
2017-01-14,2,0,52,80,75,15,56,4,0,205.0,8.0,4,0,1,3
2017-01-15,3,0,82,133,53,7,44,2,0,310.0,4.0,0,3,0,1
2017-01-16,3,0,44,90,68,15,53,0,0,213.0,0.0,0,0,0,0
2017-01-17,3,0,1,58,36,4,30,2,0,82.0,6.0,0,1,4,1
2017-01-18,3,0,13,158,83,3,74,6,0,275.0,34.0,4,15,4,11
2017-01-19,3,0,26,106,71,19,52,0,0,201.0,0.0,0,0,0,0
2017-01-20,3,0,22,72,72,13,55,4,0,166.0,8.0,4,4,0,0
2017-01-21,3,0,33,48,67,19,38,10,0,150.0,35.0,13,6,6,10
2017-01-22,4,0,75,74,71,14,50,7,0,231.0,25.0,7,3,10,5
2017-01-23,4,0,47,93,71,13,58,0,0,251.0,0.0,0,0,0,0
2017-01-24,4,0,6,82,47,11,36,0,0,140.0,0.0,0,0,0,0
2017-01-25,4,0,12,124,75,11,58,6,0,237.0,18.0,2,11,1,4
2017-01-26,4,0,15,71,52,12,38,2,0,144.0,14.0,8,4,1,1
2017-01-27,4,0,26,85,89,27,60,2,0,184.0,6.0,0,1,1,4
2017-01-28,4,0,34,54,75,17,52,6,0,162.0,32.0,5,7,3,17
2017-01-29,5,0,44,45,44,10,28,6,0,137.0,34.0,10,15,5,4
2017-01-30,5,0,31,60,57,9,41,7,0,173.0,35.0,4,9,5,17
2017-01-31,5,0,0,69,49,5,41,3,0,105.0,5.0,4,0,1,0
2017-02-01,5,0,3,52,37,9,25,3,0,81.0,12.0,2,6,3,1
2017-02-02,5,0,31,154,103,25,69,7,2,297.0,33.0,6,8,16,3
2017-02-03,5,0,14,73,77,20,52,5,0,130.0,15.0,3,7,3,2
2017-02-04,5,0,52,83,94,20,72,2,0,220.0,4.0,3,0,1,0
2017-02-05,6,0,82,92,80,18,55,7,0,255.0,29.0,4,12,9,4
2017-02-06,6,0,29,69,52,18,32,2,0,119.0,8.0,5,1,1,1
2017-02-07,6,0,0,102,63,14,44,5,0,166.0,20.0,2,10,5,3
2017-02-08,6,0,10,92,52,10,42,0,0,168.0,0.0,0,0,0,0
2017-02-09,6,0,40,151,113,23,83,7,0,323.0,37.0,7,12,13,5
2017-02-10,6,0,54,126,127,42,78,7,0,256.0,31.0,5,15,9,2
2017-02-11,6,0,60,90,84,13,64,7,0,269.0,13.0,4,2,4,3
2017-02-12,7,0,133,141,143,29,108,6,0,493.0,24.0,3,4,4,13
2017-02-13,7,0,71,133,135,25,95,15,0,347.0,47.0,26,9,5,7
2017-02-14,7,0,0,103,97,18,68,11,0,181.0,20.0,3,4,5,8
2017-02-15,7,0,7,124,81,15,62,4,0,225.0,18.0,4,3,6,5
2017-02-16,7,0,20,106,86,19,58,9,0,245.0,42.0,14,10,6,12
2017-02-17,7,0,45,90,94,18,70,6,0,241.0,12.0,2,2,4,4
2017-02-18,7,0,59,78,74,9,56,9,0,282.0,47.0,14,17,7,9
2017-02-19,8,0,124,111,141,18,114,9,0,481.0,41.0,15,8,7,11
2017-02-20,8,0,61,141,129,17,101,11,0,396.0,46.0,10,14,5,17
2017-02-21,8,0,1,99,68,17,44,7,0,145.0,15.0,5,2,2,6
2017-02-22,8,0,10,103,68,4,55,9,0,208.0,25.0,6,3,6,10
2017-02-23,8,0,8,81,77,22,51,4,0,138.0,4.0,0,0,4,0
2017-02-24,8,0,33,99,112,22,83,7,0,223.0,17.0,6,3,4,4
2017-02-25,8,0,51,59,108,21,79,8,0,192.0,24.0,9,3,10,2
2017-02-26,9,0,158,134,165,32,112,21,0,477.0,90.0,26,18,12,34
2017-02-27,9,0,72,153,140,36,102,2,0,370.0,14.0,2,10,1,1
2017-02-28,9,0,1,92,62,9,49,4,0,166.0,12.0,5,5,1,1
2017-03-01,9,1,13,143,98,21,75,2,0,268.0,2.0,2,0,0,0
2017-03-02,9,1,30,163,117,28,87,0,2,262.0,4.0,3,0,0,1
2017-03-03,9,1,46,135,141,31,108,2,0,278.0,2.0,0,0,0,2
2017-03-04,9,1,58,84,80,16,57,7,0,238.0,25.0,8,6,2,9
2017-03-05,10,1,122,114,119,24,95,0,0,367.0,0.0,0,0,0,0
2017-03-06,10,1,66,116,108,9,94,5,0,316.0,18.0,2,1,9,6
2017-03-07,10,1,9,179,88,12,69,7,0,277.0,19.0,6,5,3,5
2017-03-08,10,1,11,131,78,17,57,4,0,198.0,16.0,6,7,1,2
2017-03-09,10,1,28,126,86,26,59,1,0,198.0,1.0,0,0,0,1
2017-03-10,10,1,41,125,122,10,106,4,2,315.0,12.0,1,11,0,0
2017-03-11,10,1,62,111,111,27,82,2,0,264.0,2.0,0,0,0,2
2017-03-12,11,1,65,55,68,15,53,0,0,171.0,0.0,0,0,0,0
2017-03-13,11,1,71,152,119,23,90,6,0,337.0,26.0,5,7,4,10
2017-03-14,11,1,7,171,101,16,85,0,0,249.0,0.0,0,0,0,0
2017-03-15,11,1,5,151,101,14,79,8,0,242.0,28.0,3,10,7,8
2017-03-16,11,1,38,177,125,30,91,4,0,325.0,20.0,2,2,7,9
2017-03-17,11,1,58,142,157,31,123,3,0,348.0,9.0,1,6,1,1
2017-03-18,11,1,61,76,111,26,78,7,0,252.0,29.0,6,5,7,11
2017-03-19,12,1,126,147,122,17,97,8,0,457.0,36.0,14,9,6,7
2017-03-20,12,1,63,126,107,10,87,10,0,310.0,38.0,10,7,11,10
2017-03-21,12,1,8,131,77,20,55,2,0,193.0,8.0,1,5,1,1
2017-03-22,12,1,12,117,81,17,61,3,0,201.0,21.0,5,10,2,4
2017-03-23,12,1,19,126,100,20,76,4,0,248.0,20.0,6,3,9,2
2017-03-24,12,1,33,101,101,10,89,2,0,254.0,2.0,0,0,2,0
2017-03-25,12,1,67,90,97,14,78,5,0,300.0,14.0,1,6,6,1
2017-03-26,13,1,115,128,117,11,94,12,0,451.0,67.0,24,10,19,14
2017-03-27,13,1,55,117,99,24,75,0,0,254.0,0.0,0,0,0,0
2017-03-28,13,1,3,103,64,11,51,2,0,184.0,8.0,1,2,1,4
2017-03-29,13,1,11,191,128,33,93,2,0,287.0,0.0,0,0,0,0
2017-03-30,13,1,26,163,126,28,94,4,0,284.0,8.0,4,1,0,3
2017-03-31,13,1,52,130,124,31,91,2,0,293.0,8.0,1,1,5,1
2017-04-01,13,1,90,104,126,23,103,0,0,378.0,0.0,0,0,0,0
2017-04-02,14,1,86,86,94,18,68,8,0,296.0,36.0,13,4,7,12
2017-04-03,14,1,71,171,130,16,106,8,0,426.0,28.0,3,11,6,8
2017-04-04,14,1,8,111,75,10,57,8,0,237.0,56.0,16,15,20,5
2017-04-05,14,1,6,179,113,17,96,0,0,302.0,0.0,0,0,0,0
2017-04-06,14,1,26,159,129,31,94,4,0,322.0,12.0,0,2,2,8
2017-04-07,14,1,38,109,126,16,97,13,0,298.0,31.0,6,8,13,4
2017-04-08,14,1,70,85,93,18,56,19,0,289.0,78.0,21,8,24,25
2017-04-09,15,1,134,102,165,27,119,19,0,484.0,60.0,9,19,15,17
2017-04-10,15,1,82,180,176,32,128,16,0,485.0,52.0,10,11,19,12
2017-04-11,15,1,4,169,119,21,93,5,0,328.0,23.0,5,4,12,2
2017-04-12,15,1,9,124,107,29,64,14,0,254.0,53.0,10,16,5,22
2017-04-13,15,1,39,182,146,45,99,2,0,368.0,8.0,1,1,5,1
2017-04-14,15,1,66,128,132,37,85,10,0,294.0,38.0,15,10,5,8
2017-04-15,15,1,85,91,132,29,84,19,0,337.0,72.0,18,21,18,15
2017-04-16,16,1,103,107,103,25,78,0,0,323.0,0.0,0,0,0,0
2017-04-17,16,1,69,158,156,29,114,13,0,429.0,51.0,15,9,8,19
2017-04-18,16,1,3,112,84,20,59,5,0,164.0,15.0,9,2,3,1
2017-04-19,16,1,6,106,74,9,61,4,0,215.0,26.0,12,3,7,4
2017-04-20,16,1,26,112,84,10,71,3,0,244.0,15.0,4,3,1,7
2017-04-21,16,1,65,136,129,18,99,12,0,391.0,54.0,24,10,14,6
2017-04-22,16,1,48,55,70,11,46,13,0,209.0,45.0,18,4,18,5
2017-04-23,17,1,116,100,122,15,99,8,0,396.0,32.0,7,8,5,12
2017-04-24,17,1,61,153,117,9,104,4,0,386.0,18.0,6,4,2,6
2017-04-25,17,1,2,120,73,10,45,18,0,197.0,52.0,5,19,13,15
2017-04-26,17,1,9,115,85,7,75,3,0,200.0,3.0,0,0,0,3
2017-04-27,17,1,26,146,120,23,95,2,0,266.0,10.0,2,2,1,5
2017-04-28,17,1,85,166,180,51,128,1,0,367.0,3.0,0,0,0,3
2017-04-29,17,1,67,77,132,48,65,19,0,205.0,42.0,5,6,5,26
2017-04-30,18,1,78,51,92,23,69,0,0,232.0,0.0,0,0,0,0
2017-05-01,18,1,79,166,140,33,103,4,0,357.0,16.0,5,3,6,2
2017-05-02,18,1,3,240,140,29,109,2,0,372.0,6.0,0,5,1,0
2017-05-03,18,1,3,108,81,25,46,10,0,142.0,38.0,7,16,11,4
2017-05-04,18,1,20,137,117,23,88,6,0,240.0,12.0,1,0,1,10
2017-05-05,18,1,58,149,164,24,140,0,0,393.0,0.0,0,0,0,0
2017-05-06,18,1,107,116,131,24,103,4,0,369.0,8.0,3,0,0,5
2017-05-07,19,1,86,69,84,19,63,2,0,229.0,6.0,1,1,0,4
2017-05-08,19,1,66,128,110,18,84,8,0,311.0,42.0,8,14,15,5
2017-05-09,19,1,8,197,131,22,99,10,0,289.0,32.0,9,5,14,4
2017-05-10,19,1,11,150,109,14,95,0,0,252.0,0.0,0,0,0,0
2017-05-11,19,1,18,165,135,34,88,13,0,289.0,49.0,8,6,10,25
2017-05-12,19,1,33,91,95,30,58,7,0,166.0,13.0,2,5,5,1
2017-05-13,19,1,78,104,116,19,97,0,0,328.0,0.0,0,0,0,0
2017-05-14,20,1,148,104,121,23,96,2,0,333.0,8.0,2,1,4,1
2017-05-15,20,1,60,116,99,10,70,19,0,293.0,57.0,21,10,10,16
2017-05-16,20,1,11,137,80,15,65,0,0,197.0,0.0,0,0,0,0
2017-05-17,20,1,7,163,111,9,94,8,0,285.0,24.0,9,4,4,7
2017-05-18,20,1,25,182,132,23,94,15,0,338.0,43.0,14,8,13,8
2017-05-19,20,1,53,132,129,27,102,0,0,279.0,0.0,0,0,0,0
2017-05-20,20,1,100,92,137,30,100,7,0,293.0,16.0,5,6,3,2
2017-05-21,21,1,124,82,125,21,93,11,0,328.0,42.0,10,13,11,8
2017-05-22,21,1,63,87,112,14,92,6,0,249.0,27.0,11,4,2,10
2017-05-23,21,1,2,142,112,26,82,4,0,215.0,12.0,2,4,5,1
2017-05-24,21,1,6,177,133,18,103,12,0,324.0,38.0,10,12,5,11
2017-05-25,21,1,19,201,163,30,131,2,0,414.0,6.0,4,0,1,1
2017-05-26,21,1,44,127,146,60,82,4,0,222.0,26.0,9,5,9,3
2017-05-27,21,1,60,66,74,12,54,8,0,227.0,24.0,12,7,3,2
2017-05-28,22,1,111,100,117,17,92,8,0,363.0,36.0,15,7,7,7
2017-05-29,22,1,69,118,131,39,88,4,0,271.0,12.0,1,8,2,1
2017-05-30,22,1,2,131,95,21,62,12,0,214.0,46.0,19,11,6,10
2017-05-31,22,1,7,144,93,12,80,1,0,236.0,1.0,0,1,0,0
2017-06-01,22,2,18,140,125,31,89,5,0,274.0,15.0,6,6,2,1
2017-06-02,22,2,60,140,158,24,126,8,0,370.0,30.0,8,6,4,12
2017-06-03,22,2,76,73,117,22,95,0,0,247.0,0.0,0,0,0,0
2017-06-04,23,2,102,94,108,20,82,6,0,324.0,24.0,4,2,7,11
2017-06-05,23,2,94,223,167,44,114,9,0,467.0,45.0,8,18,10,9
2017-06-06,23,2,6,160,110,41,67,2,0,200.0,14.0,4,1,7,2
2017-06-07,23,2,11,113,93,17,71,5,0,194.0,13.0,5,5,2,1
2017-06-08,23,2,24,183,151,18,122,11,0,388.0,36.0,8,6,14,8
2017-06-09,23,2,39,111,111,31,70,10,0,233.0,41.0,19,5,5,12
2017-06-10,23,2,51,72,85,21,55,9,0,201.0,47.0,10,14,14,9
2017-06-11,24,2,157,125,164,35,119,10,0,462.0,40.0,9,16,8,7
2017-06-12,24,2,77,149,145,27,112,6,0,387.0,20.0,2,5,7,6
2017-06-13,24,2,4,119,88,12,71,5,0,223.0,23.0,13,5,2,3
2017-06-14,24,2,9,130,97,12,75,10,0,236.0,44.0,11,9,10,14
2017-06-15,24,2,24,163,131,25,103,3,0,314.0,3.0,3,0,0,0
2017-06-16,24,2,34,97,102,33,67,2,0,162.0,6.0,1,1,4,0
2017-06-17,24,2,76,107,116,29,71,16,0,290.0,56.0,14,11,11,20
2017-06-18,25,2,110,91,122,20,98,4,0,344.0,26.0,5,4,3,14
2017-06-19,25,2,81,182,139,33,100,6,0,377.0,24.0,8,4,6,6
2017-06-20,25,2,8,211,127,31,88,8,0,318.0,18.0,5,5,7,1
2017-06-21,25,2,7,129,106,22,82,2,0,237.0,2.0,0,0,2,0
2017-06-22,25,2,13,138,111,31,73,7,0,245.0,21.0,9,3,2,7
2017-06-23,25,2,42,110,97,27,70,0,0,257.0,0.0,0,0,0,0
2017-06-24,25,2,52,72,90,15,61,14,0,250.0,18.0,3,6,0,9
2017-06-25,26,2,82,58,88,16,57,15,0,249.0,29.0,9,8,4,8
2017-06-26,26,2,57,125,105,18,75,12,0,302.0,56.0,13,13,12,18
2017-06-27,26,2,11,204,151,36,111,4,0,351.0,10.0,6,2,1,1
2017-06-28,26,2,12,185,141,34,104,3,0,303.0,18.0,9,2,3,4
2017-06-29,26,2,36,158,131,26,93,12,0,370.0,36.0,14,10,5,7
2017-06-30,26,2,56,126,141,26,106,9,0,348.0,32.0,10,5,14,3
2017-07-01,26,2,76,77,97,18,79,0,0,269.0,0.0,0,0,0,0
2017-07-02,27,2,87,48,126,29,80,17,0,254.0,79.0,22,16,21,20
2017-07-03,27,2,89,149,151,9,125,17,0,504.0,90.0,36,23,22,9
2017-07-04,27,2,16,157,101,8,75,18,0,341.0,40.0,10,13,6,11
2017-07-05,27,2,5,111,79,13,66,0,0,201.0,0.0,0,0,0,0
2017-07-06,27,2,42,238,188,63,120,5,0,410.0,19.0,8,7,2,2
2017-07-07,27,2,49,120,146,55,88,3,0,243.0,3.0,0,3,0,0
2017-07-08,27,2,82,108,129,28,94,7,0,324.0,38.0,5,11,17,5
2017-07-09,28,2,131,84,155,40,108,7,0,376.0,28.0,6,11,5,6
2017-07-10,28,2,76,130,162,21,135,6,0,406.0,32.0,4,6,11,11
2017-07-11,28,2,10,168,137,26,107,4,0,321.0,12.0,4,5,1,2
2017-07-12,28,2,16,149,130,21,101,8,0,331.0,18.0,5,10,2,1
2017-07-13,28,2,12,101,91,10,59,22,0,235.0,72.0,17,12,16,27
2017-07-14,28,2,39,105,96,13,79,4,0,283.0,9.0,0,1,0,8
2017-07-15,28,2,122,179,208,43,154,11,0,510.0,49.0,10,12,17,10
2017-07-16,29,2,116,92,144,29,106,9,0,398.0,43.0,8,19,9,7
2017-07-17,29,2,76,173,162,24,134,4,0,502.0,8.0,1,0,0,7
2017-07-18,29,2,14,200,125,15,110,0,0,434.0,0.0,0,0,0,0
2017-07-19,29,2,20,134,103,19,84,0,0,275.0,0.0,0,0,0,0
2017-07-20,29,2,15,143,133,31,97,5,0,292.0,10.0,9,0,0,1
2017-07-21,29,2,46,108,138,27,104,7,0,290.0,32.0,6,6,4,16
2017-07-22,29,2,63,93,113,17,80,16,0,312.0,42.0,11,12,10,9
2017-07-23,30,2,106,91,124,23,91,10,0,382.0,59.0,14,22,8,15
2017-07-24,30,2,92,183,189,49,133,7,0,478.0,44.0,11,18,7,8
2017-07-25,30,2,18,179,122,15,101,6,0,407.0,28.0,6,9,7,6
2017-07-26,30,2,16,167,121,11,107,3,0,397.0,6.0,1,4,1,0
2017-07-27,30,2,30,160,116,18,96,2,0,347.0,10.0,5,2,1,2
2017-07-28,30,2,38,102,99,25,66,8,0,255.0,41.0,11,13,6,11
2017-07-29,30,2,94,152,149,26,118,5,0,449.0,37.0,18,8,6,5
2017-07-30,31,2,91,59,111,21,86,4,0,274.0,18.0,5,2,2,9
2017-07-31,31,2,91,184,163,33,120,10,0,537.0,46.0,14,7,19,6
2017-08-01,31,2,22,161,115,35,74,6,0,306.0,24.0,2,4,9,9
2017-08-02,31,2,32,151,122,16,78,28,0,377.0,79.0,20,25,18,16
2017-08-03,31,2,48,194,153,35,103,15,0,401.0,51.0,10,12,9,20
2017-08-04,31,2,44,111,136,40,89,7,0,278.0,45.0,13,12,5,15
2017-08-05,31,2,67,114,117,18,92,7,0,351.0,37.0,12,8,9,8
2017-08-06,32,2,84,89,93,16,68,9,0,328.0,42.0,9,12,15,6
2017-08-07,32,2,88,190,173,34,122,17,0,515.0,77.0,30,24,13,10
2017-08-08,32,2,16,152,100,20,67,13,0,257.0,61.0,10,17,20,14
2017-08-09,32,2,13,164,125,20,99,6,0,334.0,26.0,3,13,8,2
2017-08-10,32,2,29,142,117,18,97,2,0,321.0,12.0,1,1,1,9
2017-08-11,32,2,36,86,100,15,83,2,0,268.0,14.0,6,3,3,2
2017-08-12,32,2,121,133,161,24,122,15,0,527.0,75.0,25,26,14,10
2017-08-13,33,2,104,103,120,25,95,0,0,397.0,0.0,0,0,0,0
2017-08-14,33,2,65,140,144,22,108,14,0,418.0,46.0,12,12,11,11
2017-08-15,33,2,19,189,139,23,104,12,0,417.0,49.0,21,10,13,5
2017-08-16,33,2,21,164,135,17,104,14,0,364.0,60.0,11,15,16,18
2017-08-17,33,2,33,174,153,26,119,8,0,419.0,35.0,12,13,5,5
2017-08-18,33,2,56,144,147,21,110,16,0,385.0,100.0,26,18,40,16
2017-08-19,33,2,75,121,139,8,127,4,0,399.0,22.0,7,4,9,2
2017-08-20,34,2,145,163,138,15,115,8,0,487.0,28.0,9,6,4,9
2017-08-21,34,2,66,160,138,17,109,12,0,421.0,36.0,12,6,13,5
2017-08-22,34,2,6,128,80,15,59,6,0,226.0,24.0,3,9,3,9
2017-08-23,34,2,17,151,114,19,77,18,0,329.0,100.0,39,19,14,28
2017-08-24,34,2,20,109,115,24,89,2,0,247.0,6.0,0,0,1,5
2017-08-25,34,2,32,94,105,14,70,21,0,246.0,60.0,14,17,18,11
2017-08-26,34,2,53,57,93,5,78,10,0,235.0,33.0,11,3,3,16
2017-08-27,35,2,110,65,156,44,104,8,0,316.0,38.0,8,7,10,13
2017-08-28,35,2,54,132,97,11,71,15,0,329.0,50.0,11,19,12,8
2017-08-29,35,2,8,184,101,22,69,10,0,278.0,53.0,14,11,16,12
2017-08-30,35,2,11,103,66,8,51,7,0,213.0,21.0,6,5,7,3
2017-08-31,35,2,18,106,73,14,59,0,0,206.0,0.0,0,0,0,0
