{
    "api": {
      "port": 3010
    },
    "access": {
      "login": "login",
      "password": "$2b$05$kp8b2w7YJVi1xtXNp1VspeLNkRNDz/dcZCSixP.N1j0bZayK1rLcq",
      "address": "0xCbFf897cBF719562Ba4a32ce2d1e826dc87f5E36"
    },
    "endpoints": {
      "clients": [
        {
          "refActor": 1,
          "name": "hotel1",
          "url": "http://127.0.0.1:3001",
          "access": {
            "username": "admin.banques",
            "password": "admin"
          }
        },
        {
          "refActor": 2,
          "name": "hotel2",
          "url": "http://127.0.0.1:3002",
          "access": {
            "username": "admin.banques",
            "password": "admin"
          }
        }
      ]
    }
  }
  